…
| term        | estimate | std.error | statistic | p.value |
| :---------- | -------: | --------: | --------: | ------: |
| (Intercept) |    1.934 |     0.105 |    18.456 |       0 |
| x           |    3.112 |     0.075 |    41.661 |       0 |

# Bootstrap

``` r
# write code to sample before writing as a function
sim_df_nonconst %>% 
  sample_frac(replace = TRUE, size = 1) %>% 
  arrange(x)
```

    ## # A tibble: 250 x 3
    ##         x  error       y
    ##     <dbl>  <dbl>   <dbl>
    ##  1 -1.89   1.62  -2.04  
    ##  2 -1.29   1.40  -0.454 
    ##  3 -0.989 -1.97  -2.93  
    ##  4 -0.989 -1.97  -2.93  
    ##  5 -0.914 -0.908 -1.65  
    ##  6 -0.914 -0.908 -1.65  
    ##  7 -0.914 -0.908 -1.65  
    ##  8 -0.733  0.447  0.248 
    ##  9 -0.733  0.447  0.248 
    ## 10 -0.606 -0.106  0.0774
    ## # … with 240 more rows
…
# look at a few bootstrap samples
boot_straps %>% 
  filter(strap_number %in% 1:2) %>% 
  # sort by x within each sample
  mutate(strap_sample = map(strap_sample, ~arrange(.x, x))) %>% 
  # pulls out data frames
  pull(strap_sample)
```

    ## [[1]]
    ## # A tibble: 250 x 3
    ##         x  error       y
    ##     <dbl>  <dbl>   <dbl>
    ##  1 -1.29   1.40  -0.454 
    ##  2 -0.989 -1.97  -2.93  
    ##  3 -0.914 -0.908 -1.65  
    ##  4 -0.914 -0.908 -1.65  
    ##  5 -0.805  0.292 -0.123 
    ##  6 -0.805  0.292 -0.123 
    ##  7 -0.665 -0.544 -0.539 
    ##  8 -0.641 -0.416 -0.338 
    ##  9 -0.606 -0.106  0.0774
    ## 10 -0.606 -0.106  0.0774
    ## # … with 240 more rows
    ## 
    ## [[2]]
    ## # A tibble: 250 x 3
    ##         x  error      y
    ##     <dbl>  <dbl>  <dbl>
    ##  1 -1.89   1.62  -2.04 
    ##  2 -1.89   1.62  -2.04 
    ##  3 -1.29   1.40  -0.454
    ##  4 -1.29   1.40  -0.454
    ##  5 -1.00   0.832 -0.169
    ##  6 -0.914 -0.908 -1.65 
    ##  7 -0.805  0.292 -0.123
    ##  8 -0.665 -0.544 -0.539
    ##  9 -0.665 -0.544 -0.539
    ## 10 -0.665 -0.544 -0.539
    ## # … with 240 more rows
…
## Try the modelr package

The only difference is how you generate your bootstrap samples at the
beginning of the process.

``` r
boot_straps = sim_df_nonconst %>% 
  modelr::bootstrap(n = 1000)

# put in the form of a tibble to look at 1 bootstrapped sample
as_tibble(boot_straps$strap[[1]])
```

    ## # A tibble: 250 x 3
    ##         x  error     y
    ##     <dbl>  <dbl> <dbl>
    ##  1  2.52   0.528 10.1 
    ##  2  2.06   1.74   9.91
    ##  3  2.18   1.00   9.53
    ##  4  2.47  -0.224  9.17
    ##  5 -0.989 -1.97  -2.93
    ##  6  0.431 -0.106  3.19
    ##  7  0.666  0.285  4.28
    ##  8  0.793 -0.101  4.28
    ##  9  0.348 -0.497  2.55
    ## 10  1.98   0.745  8.70
    ## # … with 240 more rows
…
